…
{% highlight r %}
ENPpid3 <- ANES %>% 
group_by(Year, Region) %>%
  summarise(invHHI = sum(table(PID3))^2 / sum(table(PID3)^2)) %>%
filter(!is.na(Region))
{% endhighlight %}



{% highlight text %}
print(ENPpid3)

Source: local data frame [112 x 3]
Groups: Year [28]

    Year        Region   invHHI
   <dbl>        <fctr>    <dbl>
1   1952     Northeast 2.251207
2   1952 North Central 2.231502
3   1952         South 1.538712
4   1952          West 2.119764
5   1956     Northeast 2.352651
6   1956 North Central 2.419891
7   1956         South 1.816944
8   1956          West 2.395399
9   1958     Northeast 2.296220
10  1958 North Central 2.247543
# ... with 102 more rows
…
